%YAML 1.1
%TAG !u! tag:unity3d.com,2011:
--- !u!47 &1
QualitySettings:
  m_ObjectHideFlags: 0
  serializedVersion: 5
  m_CurrentQuality: 3
  m_QualitySettings:
  - serializedVersion: 2
    name: L
    pixelLightCount: 0
    shadows: 1
    shadowResolution: 0
    shadowProjection: 1
    shadowCascades: 1
    shadowDistance: 20
    shadowNearPlaneOffset: 2
    shadowCascade2Split: 0.33333334
    shadowCascade4Split: {x: 0.06666667, y: 0.2, z: 0.46666667}
    blendWeights: 1
    textureQuality: 1
    anisotropicTextures: 0
    antiAliasing: 0
    softParticles: 0
    softVegetation: 0
    realtimeReflectionProbes: 0
    billboardsFaceCameraPosition: 0
    vSyncCount: 0
    lodBias: 0.3
    maximumLODLevel: 0
    particleRaycastBudget: 4
    asyncUploadTimeSlice: 2
    asyncUploadBufferSize: 4
    excludedTargetPlatforms: []
  - serializedVersion: 2
    name: M
    pixelLightCount: 1
    shadows: 1
    shadowResolution: 0
    shadowProjection: 1
    shadowCascades: 1
    shadowDistance: 20
    shadowNearPlaneOffset: 2
    shadowCascade2Split: 0.33333334
    shadowCascade4Split: {x: 0.06666667, y: 0.2, z: 0.46666667}
    blendWeights: 2
    textureQuality: 0
    anisotropicTextures: 1
    antiAliasing: 0
    softParticles: 0
    softVegetation: 0
    realtimeReflectionProbes: 0
    billboardsFaceCameraPosition: 0
    vSyncCount: 0
    lodBias: 0.7
    maximumLODLevel: 0
    particleRaycastBudget: 64
    asyncUploadTimeSlice: 2
    asyncUploadBufferSize: 4
    excludedTargetPlatforms: []
  - serializedVersion: 2
    name: H
    pixelLightCount: 3
    shadows: 2
    shadowResolution: 2
    shadowProjection: 1
    shadowCascades: 2
    shadowDistance: 70
    shadowNearPlaneOffset: 2
    shadowCascade2Split: 0.33333334
    shadowCascade4Split: {x: 0.06666667, y: 0.2, z: 0.46666667}
    blendWeights: 4
    textureQuality: 0
    anisotropicTextures: 2
    antiAliasing: 2
    softParticles: 1
    softVegetation: 1
    realtimeReflectionProbes: 1
    billboardsFaceCameraPosition: 1
    vSyncCount: 1
    lodBias: 1.5
    maximumLODLevel: 0
    particleRaycastBudget: 1024
    asyncUploadTimeSlice: 2
    asyncUploadBufferSize: 4
    excludedTargetPlatforms: []
  - serializedVersion: 2
    name: VH
    pixelLightCount: 4
    shadows: 2
    shadowResolution: 2
    shadowProjection: 1
    shadowCascades: 4
    shadowDistance: 150
    shadowNearPlaneOffset: 2
    shadowCascade2Split: 0.33333334
    shadowCascade4Split: {x: 0.06666667, y: 0.19999999, z: 0.46666664}
    blendWeights: 4
    textureQuality: 0
    anisotropicTextures: 2
    antiAliasing: 2
    softParticles: 1
    softVegetation: 1
    realtimeReflectionProbes: 1
    billboardsFaceCameraPosition: 1
    vSyncCount: 1
    lodBias: 2
    maximumLODLevel: 0
    particleRaycastBudget: 4096
    asyncUploadTimeSlice: 2
    asyncUploadBufferSize: 4
    excludedTargetPlatforms: []
  m_PerPlatformDefaultQuality:
    Android: 1
    BlackBerry: 1
    GLES Emulation: 3
    Nintendo 3DS: 3
    PS3: 3
    PS4: 3
    PSM: 3
    PSP2: 1
    Samsung TV: 1
    Standalone: 3
    Tizen: 1
    WP8: 3
    Web: 3
    WebGL: 1
    WiiU: 3
    Windows Store Apps: 3
    XBOX360: 3
    XboxOne: 3
    iPhone: 1
    tvOS: 3
